simulation/modelsim/msim_transcript
# Reading pref.tcl
# do Memory_game_run_msim_rtl_verilog.do
# if {[file exists rtl_work]} {
# 	vdel -lib rtl_work -all
# }
# vlib rtl_work
# vmap work rtl_work
# Model Technology ModelSim - Intel FPGA Edition vmap 2020.1 Lib Mapping Utility 2020.02 Feb 28 2020
# vmap work rtl_work 
# Copying C:/intelFPGA_lite/20.1/modelsim_ase/win32aloem/../modelsim.ini to modelsim.ini
# Modifying modelsim.ini
# 
# vlog -sv -work work +incdir+C:/Users/gonza/Desktop/laboratorio\ 3/mgonzalez_balpizar_digital_design-_lab3_2025/Counters {C:/Users/gonza/Desktop/laboratorio 3/mgonzalez_balpizar_digital_design-_lab3_2025/Counters/top_7seg_counter.sv}
# Model Technology ModelSim - Intel FPGA Edition vlog 2020.1 Compiler 2020.02 Feb 28 2020
# Start time: 22:36:47 on Oct 13,2025
# vlog -reportprogress 300 -sv -work work "+incdir+C:/Users/gonza/Desktop/laboratorio 3/mgonzalez_balpizar_digital_design-_lab3_2025/Counters" C:/Users/gonza/Desktop/laboratorio 3/mgonzalez_balpizar_digital_design-_lab3_2025/Counters/top_7seg_counter.sv 
# -- Compiling module top_7seg_counter
# 
# Top level modules:
# 	top_7seg_counter
# End time: 22:36:47 on Oct 13,2025, Elapsed time: 0:00:00
# Errors: 0, Warnings: 0
# vlog -sv -work work +incdir+C:/Users/gonza/Desktop/laboratorio\ 3/mgonzalez_balpizar_digital_design-_lab3_2025/Counters {C:/Users/gonza/Desktop/laboratorio 3/mgonzalez_balpizar_digital_design-_lab3_2025/Counters/clk_counter_seg.sv}
# Model Technology ModelSim - Intel FPGA Edition vlog 2020.1 Compiler 2020.02 Feb 28 2020
# Start time: 22:36:47 on Oct 13,2025
# vlog -reportprogress 300 -sv -work work "+incdir+C:/Users/gonza/Desktop/laboratorio 3/mgonzalez_balpizar_digital_design-_lab3_2025/Counters" C:/Users/gonza/Desktop/laboratorio 3/mgonzalez_balpizar_digital_design-_lab3_2025/Counters/clk_counter_seg.sv 
# -- Compiling module clk_counter_seg
# 
# Top level modules:
# 	clk_counter_seg
# End time: 22:36:47 on Oct 13,2025, Elapsed time: 0:00:00
# Errors: 0, Warnings: 0
# vlog -sv -work work +incdir+C:/Users/gonza/Desktop/laboratorio\ 3/mgonzalez_balpizar_digital_design-_lab3_2025 {C:/Users/gonza/Desktop/laboratorio 3/mgonzalez_balpizar_digital_design-_lab3_2025/FSM.sv}
# Model Technology ModelSim - Intel FPGA Edition vlog 2020.1 Compiler 2020.02 Feb 28 2020
# Start time: 22:36:47 on Oct 13,2025
# vlog -reportprogress 300 -sv -work work "+incdir+C:/Users/gonza/Desktop/laboratorio 3/mgonzalez_balpizar_digital_design-_lab3_2025" C:/Users/gonza/Desktop/laboratorio 3/mgonzalez_balpizar_digital_design-_lab3_2025/FSM.sv 
# -- Compiling module FSM
# 
# Top level modules:
# 	FSM
# End time: 22:36:47 on Oct 13,2025, Elapsed time: 0:00:00
# Errors: 0, Warnings: 0
# 
# vlog -sv -work work +incdir+C:/Users/gonza/Desktop/laboratorio\ 3/mgonzalez_balpizar_digital_design-_lab3_2025/Arr_Management_tb {C:/Users/gonza/Desktop/laboratorio 3/mgonzalez_balpizar_digital_design-_lab3_2025/Arr_Management_tb/tb_fsm.sv}
# Model Technology ModelSim - Intel FPGA Edition vlog 2020.1 Compiler 2020.02 Feb 28 2020
# Start time: 22:36:47 on Oct 13,2025
# vlog -reportprogress 300 -sv -work work "+incdir+C:/Users/gonza/Desktop/laboratorio 3/mgonzalez_balpizar_digital_design-_lab3_2025/Arr_Management_tb" C:/Users/gonza/Desktop/laboratorio 3/mgonzalez_balpizar_digital_design-_lab3_2025/Arr_Management_tb/tb_fsm.sv 
# -- Compiling module tb_fsm
# 
# Top level modules:
# 	tb_fsm
# End time: 22:36:48 on Oct 13,2025, Elapsed time: 0:00:01
# Errors: 0, Warnings: 0
# 
# vsim -t 1ps -L altera_ver -L lpm_ver -L sgate_ver -L altera_mf_ver -L altera_lnsim_ver -L cyclonev_ver -L cyclonev_hssi_ver -L cyclonev_pcie_hip_ver -L rtl_work -L work -voptargs="+acc"  tb_fsm
# vsim -t 1ps -L altera_ver -L lpm_ver -L sgate_ver -L altera_mf_ver -L altera_lnsim_ver -L cyclonev_ver -L cyclonev_hssi_ver -L cyclonev_pcie_hip_ver -L rtl_work -L work -voptargs=""+acc"" tb_fsm 
# Start time: 22:36:48 on Oct 13,2025
# Loading sv_std.std
# Loading work.tb_fsm
# Loading work.FSM
# Loading work.top_7seg_counter
# Loading work.clk_counter_seg
# 
# add wave *
# view structure
# .main_pane.structure.interior.cs.body.struct
# view signals
# .main_pane.objects.interior.cs.body.tree
# run -all
# 
# ===== INICIO DE SIMULACIÓN FSM =====
# t=5000 | state=0000 | turno=1 | J1=0 | J2=0 | pareja=0 | contador=f | ganador=00
# t=15000 | state=0000 | turno=1 | J1=0 | J2=0 | pareja=0 | contador=f | ganador=00
# → Reset liberado
# 
# → FASE: INICIO DEL JUEGO
# t=25000 | state=0000 | turno=1 | J1=0 | J2=0 | pareja=0 | contador=f | ganador=00
# t=35000 | state=0001 | turno=1 | J1=0 | J2=0 | pareja=0 | contador=f | ganador=00
# t=45000 | state=0001 | turno=1 | J1=0 | J2=0 | pareja=0 | contador=f | ganador=00
# t=55000 | state=0001 | turno=1 | J1=0 | J2=0 | pareja=0 | contador=f | ganador=00
# t=65000 | state=0001 | turno=1 | J1=0 | J2=0 | pareja=0 | contador=f | ganador=00
# t=75000 | state=0001 | turno=1 | J1=0 | J2=0 | pareja=0 | contador=f | ganador=00
# t=85000 | state=0001 | turno=1 | J1=0 | J2=0 | pareja=0 | contador=f | ganador=00
# t=95000 | state=0001 | turno=1 | J1=0 | J2=0 | pareja=0 | contador=f | ganador=00
# t=105000 | state=0010 | turno=1 | J1=0 | J2=0 | pareja=0 | contador=f | ganador=00
# t=115000 | state=0010 | turno=1 | J1=0 | J2=0 | pareja=0 | contador=f | ganador=00
# t=125000 | state=0010 | turno=1 | J1=0 | J2=0 | pareja=0 | contador=f | ganador=00
# t=135000 | state=0010 | turno=1 | J1=0 | J2=0 | pareja=0 | contador=f | ganador=00
# t=145000 | state=0010 | turno=1 | J1=0 | J2=0 | pareja=0 | contador=f | ganador=00
# t=155000 | state=0010 | turno=1 | J1=0 | J2=0 | pareja=0 | contador=f | ganador=00
# t=165000 | state=0011 | turno=1 | J1=0 | J2=0 | pareja=0 | contador=f | ganador=00
# t=175000 | state=0011 | turno=1 | J1=0 | J2=0 | pareja=0 | contador=f | ganador=00
# t=185000 | state=0011 | turno=1 | J1=0 | J2=0 | pareja=0 | contador=f | ganador=00
# t=195000 | state=0011 | turno=1 | J1=0 | J2=0 | pareja=0 | contador=f | ganador=00
# t=205000 | state=0011 | turno=1 | J1=0 | J2=0 | pareja=0 | contador=f | ganador=00
# t=215000 | state=0011 | turno=1 | J1=0 | J2=0 | pareja=0 | contador=f | ganador=00
# 
# → TURNO JUGADOR 1: SIN PAREJA
# t=225000 | state=0100 | turno=1 | J1=0 | J2=0 | pareja=0 | contador=f | ganador=00
# t=235000 | state=0101 | turno=1 | J1=0 | J2=0 | pareja=0 | contador=f | ganador=00
# t=245000 | state=0101 | turno=1 | J1=0 | J2=0 | pareja=0 | contador=f | ganador=00
# t=255000 | state=0101 | turno=1 | J1=0 | J2=0 | pareja=0 | contador=f | ganador=00
# t=265000 | state=0101 | turno=1 | J1=0 | J2=0 | pareja=0 | contador=f | ganador=00
# t=275000 | state=0101 | turno=1 | J1=0 | J2=0 | pareja=0 | contador=f | ganador=00
# t=285000 | state=0101 | turno=1 | J1=0 | J2=0 | pareja=0 | contador=f | ganador=00
# t=295000 | state=0101 | turno=1 | J1=0 | J2=0 | pareja=0 | contador=f | ganador=00
# t=305000 | state=0101 | turno=1 | J1=0 | J2=0 | pareja=0 | contador=f | ganador=00
# t=315000 | state=0101 | turno=1 | J1=0 | J2=0 | pareja=0 | contador=f | ganador=00
# t=325000 | state=0101 | turno=1 | J1=0 | J2=0 | pareja=0 | contador=f | ganador=00
# t=335000 | state=0110 | turno=1 | J1=0 | J2=0 | pareja=0 | contador=f | ganador=00
# t=345000 | state=0110 | turno=1 | J1=0 | J2=0 | pareja=0 | contador=f | ganador=00
# t=355000 | state=0110 | turno=1 | J1=0 | J2=0 | pareja=0 | contador=f | ganador=00
# t=365000 | state=0110 | turno=1 | J1=0 | J2=0 | pareja=0 | contador=f | ganador=00
# t=375000 | state=0110 | turno=1 | J1=0 | J2=0 | pareja=0 | contador=f | ganador=00
# t=385000 | state=0110 | turno=1 | J1=0 | J2=0 | pareja=0 | contador=f | ganador=00
# t=395000 | state=0111 | turno=1 | J1=0 | J2=0 | pareja=0 | contador=f | ganador=00
# t=405000 | state=0111 | turno=1 | J1=0 | J2=0 | pareja=0 | contador=f | ganador=00
# t=415000 | state=0111 | turno=1 | J1=0 | J2=0 | pareja=0 | contador=f | ganador=00
# 
# → TURNO JUGADOR 2: CON PAREJA
# t=425000 | state=1001 | turno=2 | J1=0 | J2=0 | pareja=0 | contador=f | ganador=00
# t=435000 | state=0101 | turno=2 | J1=0 | J2=0 | pareja=0 | contador=f | ganador=00
# t=445000 | state=0101 | turno=2 | J1=0 | J2=0 | pareja=0 | contador=f | ganador=00
# t=455000 | state=0101 | turno=2 | J1=0 | J2=0 | pareja=0 | contador=f | ganador=00
# t=465000 | state=0101 | turno=2 | J1=0 | J2=0 | pareja=0 | contador=f | ganador=00
# t=475000 | state=0101 | turno=2 | J1=0 | J2=0 | pareja=0 | contador=f | ganador=00
# t=485000 | state=0101 | turno=2 | J1=0 | J2=0 | pareja=0 | contador=f | ganador=00
# t=495000 | state=0101 | turno=2 | J1=0 | J2=0 | pareja=0 | contador=f | ganador=00
# t=505000 | state=0101 | turno=2 | J1=0 | J2=0 | pareja=0 | contador=f | ganador=00
# t=515000 | state=0101 | turno=2 | J1=0 | J2=0 | pareja=0 | contador=f | ganador=00
# t=525000 | state=0101 | turno=2 | J1=0 | J2=0 | pareja=0 | contador=f | ganador=00
# t=535000 | state=0110 | turno=2 | J1=0 | J2=0 | pareja=0 | contador=f | ganador=00
# t=545000 | state=0110 | turno=2 | J1=0 | J2=0 | pareja=0 | contador=f | ganador=00
# t=555000 | state=0110 | turno=2 | J1=0 | J2=0 | pareja=0 | contador=f | ganador=00
# t=565000 | state=0110 | turno=2 | J1=0 | J2=0 | pareja=0 | contador=f | ganador=00
# t=575000 | state=0110 | turno=2 | J1=0 | J2=0 | pareja=0 | contador=f | ganador=00
# t=585000 | state=0110 | turno=2 | J1=0 | J2=0 | pareja=0 | contador=f | ganador=00
# t=595000 | state=0111 | turno=2 | J1=0 | J2=0 | pareja=0 | contador=f | ganador=00
# t=605000 | state=0111 | turno=2 | J1=0 | J2=0 | pareja=0 | contador=f | ganador=00
# t=615000 | state=0111 | turno=2 | J1=0 | J2=0 | pareja=1 | contador=f | ganador=00
# t=625000 | state=1001 | turno=2 | J1=0 | J2=1 | pareja=1 | contador=f | ganador=00
# 
# → SIMULANDO TIEMPO AGOTADO (espera el contador)
# t=635000 | state=0101 | turno=2 | J1=0 | J2=1 | pareja=0 | contador=f | ganador=00
# t=645000 | state=0101 | turno=2 | J1=0 | J2=1 | pareja=0 | contador=f | ganador=00
# t=655000 | state=0101 | turno=2 | J1=0 | J2=1 | pareja=0 | contador=f | ganador=00
# t=665000 | state=0101 | turno=2 | J1=0 | J2=1 | pareja=0 | contador=f | ganador=00
# t=675000 | state=0101 | turno=2 | J1=0 | J2=1 | pareja=0 | contador=f | ganador=00
# t=685000 | state=0101 | turno=2 | J1=0 | J2=1 | pareja=0 | contador=f | ganador=00
# t=695000 | state=0101 | turno=2 | J1=0 | J2=1 | pareja=0 | contador=f | ganador=00
# t=705000 | state=0101 | turno=2 | J1=0 | J2=1 | pareja=0 | contador=f | ganador=00
# t=715000 | state=0101 | turno=2 | J1=0 | J2=1 | pareja=0 | contador=f | ganador=00
# t=725000 | state=0101 | turno=2 | J1=0 | J2=1 | pareja=0 | contador=f | ganador=00
# t=735000 | state=0101 | turno=2 | J1=0 | J2=1 | pareja=0 | contador=f | ganador=00
# t=745000 | state=0101 | turno=2 | J1=0 | J2=1 | pareja=0 | contador=f | ganador=00
# t=755000 | state=0101 | turno=2 | J1=0 | J2=1 | pareja=0 | contador=f | ganador=00
# t=765000 | state=0101 | turno=2 | J1=0 | J2=1 | pareja=0 | contador=f | ganador=00
# t=775000 | state=0101 | turno=2 | J1=0 | J2=1 | pareja=0 | contador=f | ganador=00
# t=785000 | state=0101 | turno=2 | J1=0 | J2=1 | pareja=0 | contador=f | ganador=00
# t=795000 | state=0101 | turno=2 | J1=0 | J2=1 | pareja=0 | contador=f | ganador=00
# t=805000 | state=0101 | turno=2 | J1=0 | J2=1 | pareja=0 | contador=f | ganador=00
# t=815000 | state=0101 | turno=2 | J1=0 | J2=1 | pareja=0 | contador=f | ganador=00
# t=825000 | state=0101 | turno=2 | J1=0 | J2=1 | pareja=0 | contador=f | ganador=00
# t=835000 | state=0101 | turno=2 | J1=0 | J2=1 | pareja=0 | contador=f | ganador=00
# t=845000 | state=0101 | turno=2 | J1=0 | J2=1 | pareja=0 | contador=f | ganador=00
# t=855000 | state=0101 | turno=2 | J1=0 | J2=1 | pareja=0 | contador=f | ganador=00
# t=865000 | state=0101 | turno=2 | J1=0 | J2=1 | pareja=0 | contador=f | ganador=00
# t=875000 | state=0101 | turno=2 | J1=0 | J2=1 | pareja=0 | contador=f | ganador=00
# t=885000 | state=0101 | turno=2 | J1=0 | J2=1 | pareja=0 | contador=f | ganador=00
# t=895000 | state=0101 | turno=2 | J1=0 | J2=1 | pareja=0 | contador=f | ganador=00
# t=905000 | state=0101 | turno=2 | J1=0 | J2=1 | pareja=0 | contador=f | ganador=00
# t=915000 | state=0101 | turno=2 | J1=0 | J2=1 | pareja=0 | contador=f | ganador=00
# t=925000 | state=0101 | turno=2 | J1=0 | J2=1 | pareja=0 | contador=f | ganador=00
# t=935000 | state=0101 | turno=2 | J1=0 | J2=1 | pareja=0 | contador=f | ganador=00
# t=945000 | state=0101 | turno=2 | J1=0 | J2=1 | pareja=0 | contador=f | ganador=00
# t=955000 | state=0101 | turno=2 | J1=0 | J2=1 | pareja=0 | contador=f | ganador=00
# t=965000 | state=0101 | turno=2 | J1=0 | J2=1 | pareja=0 | contador=f | ganador=00
# t=975000 | state=0101 | turno=2 | J1=0 | J2=1 | pareja=0 | contador=f | ganador=00
# t=985000 | state=0101 | turno=2 | J1=0 | J2=1 | pareja=0 | contador=f | ganador=00
# t=995000 | state=0101 | turno=2 | J1=0 | J2=1 | pareja=0 | contador=f | ganador=00
# t=1005000 | state=0101 | turno=2 | J1=0 | J2=1 | pareja=0 | contador=f | ganador=00
# t=1015000 | state=0101 | turno=2 | J1=0 | J2=1 | pareja=0 | contador=f | ganador=00
# t=1025000 | state=0101 | turno=2 | J1=0 | J2=1 | pareja=0 | contador=f | ganador=00
# t=1035000 | state=0101 | turno=2 | J1=0 | J2=1 | pareja=0 | contador=f | ganador=00
# t=1045000 | state=0101 | turno=2 | J1=0 | J2=1 | pareja=0 | contador=f | ganador=00
# t=1055000 | state=0101 | turno=2 | J1=0 | J2=1 | pareja=0 | contador=f | ganador=00
# t=1065000 | state=0101 | turno=2 | J1=0 | J2=1 | pareja=0 | contador=f | ganador=00
# t=1075000 | state=0101 | turno=2 | J1=0 | J2=1 | pareja=0 | contador=f | ganador=00
# t=1085000 | state=0101 | turno=2 | J1=0 | J2=1 | pareja=0 | contador=f | ganador=00
# t=1095000 | state=0101 | turno=2 | J1=0 | J2=1 | pareja=0 | contador=f | ganador=00
# t=1105000 | state=0101 | turno=2 | J1=0 | J2=1 | pareja=0 | contador=f | ganador=00
# t=1115000 | state=0101 | turno=2 | J1=0 | J2=1 | pareja=0 | contador=f | ganador=00
# t=1125000 | state=0101 | turno=2 | J1=0 | J2=1 | pareja=0 | contador=f | ganador=00
# t=1135000 | state=0101 | turno=2 | J1=0 | J2=1 | pareja=0 | contador=f | ganador=00
# t=1145000 | state=0101 | turno=2 | J1=0 | J2=1 | pareja=0 | contador=f | ganador=00
# t=1155000 | state=0101 | turno=2 | J1=0 | J2=1 | pareja=0 | contador=f | ganador=00
# t=1165000 | state=0101 | turno=2 | J1=0 | J2=1 | pareja=0 | contador=f | ganador=00
# t=1175000 | state=0101 | turno=2 | J1=0 | J2=1 | pareja=0 | contador=f | ganador=00
# t=1185000 | state=0101 | turno=2 | J1=0 | J2=1 | pareja=0 | contador=f | ganador=00
# t=1195000 | state=0101 | turno=2 | J1=0 | J2=1 | pareja=0 | contador=f | ganador=00
# t=1205000 | state=0101 | turno=2 | J1=0 | J2=1 | pareja=0 | contador=f | ganador=00
# t=1215000 | state=0101 | turno=2 | J1=0 | J2=1 | pareja=0 | contador=f | ganador=00
# t=1225000 | state=0101 | turno=2 | J1=0 | J2=1 | pareja=0 | contador=f | ganador=00
# t=1235000 | state=0101 | turno=2 | J1=0 | J2=1 | pareja=0 | contador=f | ganador=00
# t=1245000 | state=0101 | turno=2 | J1=0 | J2=1 | pareja=0 | contador=f | ganador=00
# t=1255000 | state=0101 | turno=2 | J1=0 | J2=1 | pareja=0 | contador=f | ganador=00
# t=1265000 | state=0101 | turno=2 | J1=0 | J2=1 | pareja=0 | contador=f | ganador=00
# t=1275000 | state=0101 | turno=2 | J1=0 | J2=1 | pareja=0 | contador=f | ganador=00
# t=1285000 | state=0101 | turno=2 | J1=0 | J2=1 | pareja=0 | contador=f | ganador=00
# t=1295000 | state=0101 | turno=2 | J1=0 | J2=1 | pareja=0 | contador=f | ganador=00
# t=1305000 | state=0101 | turno=2 | J1=0 | J2=1 | pareja=0 | contador=f | ganador=00
# t=1315000 | state=0101 | turno=2 | J1=0 | J2=1 | pareja=0 | contador=f | ganador=00
# t=1325000 | state=0101 | turno=2 | J1=0 | J2=1 | pareja=0 | contador=f | ganador=00
# t=1335000 | state=0101 | turno=2 | J1=0 | J2=1 | pareja=0 | contador=f | ganador=00
# t=1345000 | state=0101 | turno=2 | J1=0 | J2=1 | pareja=0 | contador=f | ganador=00
# t=1355000 | state=0101 | turno=2 | J1=0 | J2=1 | pareja=0 | contador=f | ganador=00
# t=1365000 | state=0101 | turno=2 | J1=0 | J2=1 | pareja=0 | contador=f | ganador=00
# t=1375000 | state=0101 | turno=2 | J1=0 | J2=1 | pareja=0 | contador=f | ganador=00
# t=1385000 | state=0101 | turno=2 | J1=0 | J2=1 | pareja=0 | contador=f | ganador=00
# t=1395000 | state=0101 | turno=2 | J1=0 | J2=1 | pareja=0 | contador=f | ganador=00
# t=1405000 | state=0101 | turno=2 | J1=0 | J2=1 | pareja=0 | contador=f | ganador=00
# t=1415000 | state=0101 | turno=2 | J1=0 | J2=1 | pareja=0 | contador=f | ganador=00
# t=1425000 | state=0101 | turno=2 | J1=0 | J2=1 | pareja=0 | contador=f | ganador=00
# t=1435000 | state=0101 | turno=2 | J1=0 | J2=1 | pareja=0 | contador=f | ganador=00
# t=1445000 | state=0101 | turno=2 | J1=0 | J2=1 | pareja=0 | contador=f | ganador=00
# t=1455000 | state=0101 | turno=2 | J1=0 | J2=1 | pareja=0 | contador=f | ganador=00
# t=1465000 | state=0101 | turno=2 | J1=0 | J2=1 | pareja=0 | contador=f | ganador=00
# t=1475000 | state=0101 | turno=2 | J1=0 | J2=1 | pareja=0 | contador=f | ganador=00
# t=1485000 | state=0101 | turno=2 | J1=0 | J2=1 | pareja=0 | contador=f | ganador=00
# t=1495000 | state=0101 | turno=2 | J1=0 | J2=1 | pareja=0 | contador=f | ganador=00
# t=1505000 | state=0101 | turno=2 | J1=0 | J2=1 | pareja=0 | contador=f | ganador=00
# t=1515000 | state=0101 | turno=2 | J1=0 | J2=1 | pareja=0 | contador=f | ganador=00
# t=1525000 | state=0101 | turno=2 | J1=0 | J2=1 | pareja=0 | contador=f | ganador=00
# t=1535000 | state=0101 | turno=2 | J1=0 | J2=1 | pareja=0 | contador=f | ganador=00
# t=1545000 | state=0101 | turno=2 | J1=0 | J2=1 | pareja=0 | contador=f | ganador=00
# t=1555000 | state=0101 | turno=2 | J1=0 | J2=1 | pareja=0 | contador=f | ganador=00
# t=1565000 | state=0101 | turno=2 | J1=0 | J2=1 | pareja=0 | contador=f | ganador=00
# t=1575000 | state=0101 | turno=2 | J1=0 | J2=1 | pareja=0 | contador=f | ganador=00
# t=1585000 | state=0101 | turno=2 | J1=0 | J2=1 | pareja=0 | contador=f | ganador=00
# t=1595000 | state=0101 | turno=2 | J1=0 | J2=1 | pareja=0 | contador=f | ganador=00
# t=1605000 | state=0101 | turno=2 | J1=0 | J2=1 | pareja=0 | contador=f | ganador=00
# t=1615000 | state=0101 | turno=2 | J1=0 | J2=1 | pareja=0 | contador=f | ganador=00
# t=1625000 | state=0101 | turno=2 | J1=0 | J2=1 | pareja=0 | contador=f | ganador=00
# t=1635000 | state=0101 | turno=2 | J1=0 | J2=1 | pareja=0 | contador=f | ganador=00
# t=1645000 | state=0101 | turno=2 | J1=0 | J2=1 | pareja=0 | contador=f | ganador=00
# t=1655000 | state=0101 | turno=2 | J1=0 | J2=1 | pareja=0 | contador=f | ganador=00
# t=1665000 | state=0101 | turno=2 | J1=0 | J2=1 | pareja=0 | contador=e | ganador=00
# t=1675000 | state=0101 | turno=2 | J1=0 | J2=1 | pareja=0 | contador=e | ganador=00
# t=1685000 | state=0101 | turno=2 | J1=0 | J2=1 | pareja=0 | contador=e | ganador=00
# t=1695000 | state=0101 | turno=2 | J1=0 | J2=1 | pareja=0 | contador=e | ganador=00
# t=1705000 | state=0101 | turno=2 | J1=0 | J2=1 | pareja=0 | contador=e | ganador=00
# t=1715000 | state=0101 | turno=2 | J1=0 | J2=1 | pareja=0 | contador=e | ganador=00
# t=1725000 | state=0101 | turno=2 | J1=0 | J2=1 | pareja=0 | contador=e | ganador=00
# t=1735000 | state=0101 | turno=2 | J1=0 | J2=1 | pareja=0 | contador=e | ganador=00
# t=1745000 | state=0101 | turno=2 | J1=0 | J2=1 | pareja=0 | contador=e | ganador=00
# t=1755000 | state=0101 | turno=2 | J1=0 | J2=1 | pareja=0 | contador=e | ganador=00
# t=1765000 | state=0101 | turno=2 | J1=0 | J2=1 | pareja=0 | contador=e | ganador=00
# t=1775000 | state=0101 | turno=2 | J1=0 | J2=1 | pareja=0 | contador=e | ganador=00
# t=1785000 | state=0101 | turno=2 | J1=0 | J2=1 | pareja=0 | contador=e | ganador=00
# t=1795000 | state=0101 | turno=2 | J1=0 | J2=1 | pareja=0 | contador=e | ganador=00
# t=1805000 | state=0101 | turno=2 | J1=0 | J2=1 | pareja=0 | contador=e | ganador=00
# t=1815000 | state=0101 | turno=2 | J1=0 | J2=1 | pareja=0 | contador=e | ganador=00
# t=1825000 | state=0101 | turno=2 | J1=0 | J2=1 | pareja=0 | contador=e | ganador=00
# t=1835000 | state=0101 | turno=2 | J1=0 | J2=1 | pareja=0 | contador=e | ganador=00
# t=1845000 | state=0101 | turno=2 | J1=0 | J2=1 | pareja=0 | contador=e | ganador=00
# t=1855000 | state=0101 | turno=2 | J1=0 | J2=1 | pareja=0 | contador=e | ganador=00
# t=1865000 | state=0101 | turno=2 | J1=0 | J2=1 | pareja=0 | contador=e | ganador=00
# t=1875000 | state=0101 | turno=2 | J1=0 | J2=1 | pareja=0 | contador=e | ganador=00
# t=1885000 | state=0101 | turno=2 | J1=0 | J2=1 | pareja=0 | contador=e | ganador=00
# t=1895000 | state=0101 | turno=2 | J1=0 | J2=1 | pareja=0 | contador=e | ganador=00
# t=1905000 | state=0101 | turno=2 | J1=0 | J2=1 | pareja=0 | contador=e | ganador=00
# t=1915000 | state=0101 | turno=2 | J1=0 | J2=1 | pareja=0 | contador=e | ganador=00
# t=1925000 | state=0101 | turno=2 | J1=0 | J2=1 | pareja=0 | contador=e | ganador=00
# t=1935000 | state=0101 | turno=2 | J1=0 | J2=1 | pareja=0 | contador=e | ganador=00
# t=1945000 | state=0101 | turno=2 | J1=0 | J2=1 | pareja=0 | contador=e | ganador=00
# t=1955000 | state=0101 | turno=2 | J1=0 | J2=1 | pareja=0 | contador=e | ganador=00
# t=1965000 | state=0101 | turno=2 | J1=0 | J2=1 | pareja=0 | contador=e | ganador=00
# t=1975000 | state=0101 | turno=2 | J1=0 | J2=1 | pareja=0 | contador=e | ganador=00
# t=1985000 | state=0101 | turno=2 | J1=0 | J2=1 | pareja=0 | contador=e | ganador=00
# t=1995000 | state=0101 | turno=2 | J1=0 | J2=1 | pareja=0 | contador=e | ganador=00
# t=2005000 | state=0101 | turno=2 | J1=0 | J2=1 | pareja=0 | contador=e | ganador=00
# t=2015000 | state=0101 | turno=2 | J1=0 | J2=1 | pareja=0 | contador=e | ganador=00
# t=2025000 | state=0101 | turno=2 | J1=0 | J2=1 | pareja=0 | contador=e | ganador=00
# t=2035000 | state=0101 | turno=2 | J1=0 | J2=1 | pareja=0 | contador=e | ganador=00
# t=2045000 | state=0101 | turno=2 | J1=0 | J2=1 | pareja=0 | contador=e | ganador=00
# t=2055000 | state=0101 | turno=2 | J1=0 | J2=1 | pareja=0 | contador=e | ganador=00
# t=2065000 | state=0101 | turno=2 | J1=0 | J2=1 | pareja=0 | contador=e | ganador=00
# t=2075000 | state=0101 | turno=2 | J1=0 | J2=1 | pareja=0 | contador=e | ganador=00
# t=2085000 | state=0101 | turno=2 | J1=0 | J2=1 | pareja=0 | contador=e | ganador=00
# t=2095000 | state=0101 | turno=2 | J1=0 | J2=1 | pareja=0 | contador=e | ganador=00
# t=2105000 | state=0101 | turno=2 | J1=0 | J2=1 | pareja=0 | contador=e | ganador=00
# t=2115000 | state=0101 | turno=2 | J1=0 | J2=1 | pareja=0 | contador=e | ganador=00
# t=2125000 | state=0101 | turno=2 | J1=0 | J2=1 | pareja=0 | contador=e | ganador=00
# t=2135000 | state=0101 | turno=2 | J1=0 | J2=1 | pareja=0 | contador=e | ganador=00
# t=2145000 | state=0101 | turno=2 | J1=0 | J2=1 | pareja=0 | contador=e | ganador=00
# t=2155000 | state=0101 | turno=2 | J1=0 | J2=1 | pareja=0 | contador=e | ganador=00
# t=2165000 | state=0101 | turno=2 | J1=0 | J2=1 | pareja=0 | contador=e | ganador=00
# t=2175000 | state=0101 | turno=2 | J1=0 | J2=1 | pareja=0 | contador=e | ganador=00
# t=2185000 | state=0101 | turno=2 | J1=0 | J2=1 | pareja=0 | contador=e | ganador=00
# t=2195000 | state=0101 | turno=2 | J1=0 | J2=1 | pareja=0 | contador=e | ganador=00
# t=2205000 | state=0101 | turno=2 | J1=0 | J2=1 | pareja=0 | contador=e | ganador=00
# t=2215000 | state=0101 | turno=2 | J1=0 | J2=1 | pareja=0 | contador=e | ganador=00
# t=2225000 | state=0101 | turno=2 | J1=0 | J2=1 | pareja=0 | contador=e | ganador=00
# t=2235000 | state=0101 | turno=2 | J1=0 | J2=1 | pareja=0 | contador=e | ganador=00
# t=2245000 | state=0101 | turno=2 | J1=0 | J2=1 | pareja=0 | contador=e | ganador=00
# t=2255000 | state=0101 | turno=2 | J1=0 | J2=1 | pareja=0 | contador=e | ganador=00
# t=2265000 | state=0101 | turno=2 | J1=0 | J2=1 | pareja=0 | contador=e | ganador=00
# t=2275000 | state=0101 | turno=2 | J1=0 | J2=1 | pareja=0 | contador=e | ganador=00
# t=2285000 | state=0101 | turno=2 | J1=0 | J2=1 | pareja=0 | contador=e | ganador=00
# t=2295000 | state=0101 | turno=2 | J1=0 | J2=1 | pareja=0 | contador=e | ganador=00
# t=2305000 | state=0101 | turno=2 | J1=0 | J2=1 | pareja=0 | contador=e | ganador=00
# t=2315000 | state=0101 | turno=2 | J1=0 | J2=1 | pareja=0 | contador=e | ganador=00
# t=2325000 | state=0101 | turno=2 | J1=0 | J2=1 | pareja=0 | contador=e | ganador=00
# t=2335000 | state=0101 | turno=2 | J1=0 | J2=1 | pareja=0 | contador=e | ganador=00
# t=2345000 | state=0101 | turno=2 | J1=0 | J2=1 | pareja=0 | contador=e | ganador=00
# t=2355000 | state=0101 | turno=2 | J1=0 | J2=1 | pareja=0 | contador=e | ganador=00
# t=2365000 | state=0101 | turno=2 | J1=0 | J2=1 | pareja=0 | contador=e | ganador=00
# t=2375000 | state=0101 | turno=2 | J1=0 | J2=1 | pareja=0 | contador=e | ganador=00
# t=2385000 | state=0101 | turno=2 | J1=0 | J2=1 | pareja=0 | contador=e | ganador=00
# t=2395000 | state=0101 | turno=2 | J1=0 | J2=1 | pareja=0 | contador=e | ganador=00
# t=2405000 | state=0101 | turno=2 | J1=0 | J2=1 | pareja=0 | contador=e | ganador=00
# t=2415000 | state=0101 | turno=2 | J1=0 | J2=1 | pareja=0 | contador=e | ganador=00
# t=2425000 | state=0101 | turno=2 | J1=0 | J2=1 | pareja=0 | contador=e | ganador=00
# t=2435000 | state=0101 | turno=2 | J1=0 | J2=1 | pareja=0 | contador=e | ganador=00
# t=2445000 | state=0101 | turno=2 | J1=0 | J2=1 | pareja=0 | contador=e | ganador=00
# t=2455000 | state=0101 | turno=2 | J1=0 | J2=1 | pareja=0 | contador=e | ganador=00
# t=2465000 | state=0101 | turno=2 | J1=0 | J2=1 | pareja=0 | contador=e | ganador=00
# t=2475000 | state=0101 | turno=2 | J1=0 | J2=1 | pareja=0 | contador=e | ganador=00
# t=2485000 | state=0101 | turno=2 | J1=0 | J2=1 | pareja=0 | contador=e | ganador=00
# t=2495000 | state=0101 | turno=2 | J1=0 | J2=1 | pareja=0 | contador=e | ganador=00
# t=2505000 | state=0101 | turno=2 | J1=0 | J2=1 | pareja=0 | contador=e | ganador=00
