simulation/modelsim/msim_transcript
# Reading pref.tcl
# do Memory_game_run_msim_rtl_verilog.do
# if {[file exists rtl_work]} {
# 	vdel -lib rtl_work -all
# }
# vlib rtl_work
# vmap work rtl_work
# Model Technology ModelSim - Intel FPGA Edition vmap 2020.1 Lib Mapping Utility 2020.02 Feb 28 2020
# vmap work rtl_work 
# Copying C:/intelFPGA_lite/20.1/modelsim_ase/win32aloem/../modelsim.ini to modelsim.ini
# Modifying modelsim.ini
# 
# vlog -sv -work work +incdir+C:/Users/space/Desktop/Brayan/Taller_Digitales/Taller_3/Arr_Management {C:/Users/space/Desktop/Brayan/Taller_Digitales/Taller_3/Arr_Management/seleccionar_parejas.sv}
# Model Technology ModelSim - Intel FPGA Edition vlog 2020.1 Compiler 2020.02 Feb 28 2020
# Start time: 02:37:15 on Oct 14,2025
# vlog -reportprogress 300 -sv -work work "+incdir+C:/Users/space/Desktop/Brayan/Taller_Digitales/Taller_3/Arr_Management" C:/Users/space/Desktop/Brayan/Taller_Digitales/Taller_3/Arr_Management/seleccionar_parejas.sv 
# -- Compiling module seleccionar_parejas
# ** Warning: C:/Users/space/Desktop/Brayan/Taller_Digitales/Taller_3/Arr_Management/seleccionar_parejas.sv(8): (vlog-13314) Defaulting port 'arr_in' kind to 'var' rather than 'wire' due to default compile option setting of -svinputport=relaxed.
# 
# Top level modules:
# 	seleccionar_parejas
# End time: 02:37:15 on Oct 14,2025, Elapsed time: 0:00:00
# Errors: 0, Warnings: 1
# 
# vlog -sv -work work +incdir+C:/Users/space/Desktop/Brayan/Taller_Digitales/Taller_3/Arr_Management_tb {C:/Users/space/Desktop/Brayan/Taller_Digitales/Taller_3/Arr_Management_tb/tb_seleccionar_parejas.sv}
# Model Technology ModelSim - Intel FPGA Edition vlog 2020.1 Compiler 2020.02 Feb 28 2020
# Start time: 02:37:15 on Oct 14,2025
# vlog -reportprogress 300 -sv -work work "+incdir+C:/Users/space/Desktop/Brayan/Taller_Digitales/Taller_3/Arr_Management_tb" C:/Users/space/Desktop/Brayan/Taller_Digitales/Taller_3/Arr_Management_tb/tb_seleccionar_parejas.sv 
# -- Compiling module tb_seleccionar_parejas
# 
# Top level modules:
# 	tb_seleccionar_parejas
# End time: 02:37:15 on Oct 14,2025, Elapsed time: 0:00:00
# Errors: 0, Warnings: 0
# 
# vsim -t 1ps -L altera_ver -L lpm_ver -L sgate_ver -L altera_mf_ver -L altera_lnsim_ver -L cyclonev_ver -L cyclonev_hssi_ver -L cyclonev_pcie_hip_ver -L rtl_work -L work -voptargs="+acc"  tb_seleccionar_parejas
# vsim -t 1ps -L altera_ver -L lpm_ver -L sgate_ver -L altera_mf_ver -L altera_lnsim_ver -L cyclonev_ver -L cyclonev_hssi_ver -L cyclonev_pcie_hip_ver -L rtl_work -L work -voptargs=""+acc"" tb_seleccionar_parejas 
# Start time: 02:37:15 on Oct 14,2025
# Loading sv_std.std
# Loading work.tb_seleccionar_parejas
# Loading work.seleccionar_parejas
# 
# add wave *
# view structure
# .main_pane.structure.interior.cs.body.struct
# view signals
# .main_pane.objects.interior.cs.body.tree
# run -all
# Contenido de arr_in:
# 00000 00000 00100 00100 01000 01000 01100 01100 10000 10000 10100 10100 11000 11000 11100 11100 
# 
# ==== INICIO TB seleccionar_parejas (salida registrada) ====
# t=5000 | running=0 | index=0 | done=0 | cartas_sel=00
# t=15000 | running=0 | index=0 | done=0 | cartas_sel=00
# t=25000 | running=0 | index=0 | done=0 | cartas_sel=00
# 
# [START ronda 1]
# t=35000 | running=0 | index=0 | done=0 | cartas_sel=00
# t=45000 | running=1 | index=0 | done=0 | cartas_sel=00
# t=55000 | running=1 | index=0 | done=0 | cartas_sel=00
# t=65000 | running=1 | index=1 | done=0 | cartas_sel=00
# t=75000 | running=1 | index=1 | done=0 | cartas_sel=00
# t=85000 | running=1 | index=2 | done=0 | cartas_sel=00
# t=95000 | running=1 | index=2 | done=0 | cartas_sel=00
# t=105000 | running=0 | index=2 | done=1 | cartas_sel=01
# 
# --- arr_out @ done (t=105000, index=2) ---
# 00000 00000 00101 00100 01000 01000 01100 01100 10000 10000 10100 10100 11000 11000 11100 11100 
# 
# 
# [START ronda 2]
# t=115000 | running=0 | index=2 | done=0 | cartas_sel=01
# t=125000 | running=1 | index=0 | done=0 | cartas_sel=00
# t=135000 | running=1 | index=0 | done=0 | cartas_sel=00
# t=145000 | running=1 | index=15 | done=0 | cartas_sel=00
# t=155000 | running=1 | index=15 | done=0 | cartas_sel=00
# t=165000 | running=0 | index=15 | done=1 | cartas_sel=01
# 
# --- arr_out @ done (t=165000, index=15) ---
# 00000 00000 00100 00100 01000 01000 01100 01100 10000 10000 10100 10100 11000 11000 11100 11101 
# 
# 
# [START ronda 2]
# t=175000 | running=0 | index=15 | done=0 | cartas_sel=01
# t=185000 | running=1 | index=0 | done=0 | cartas_sel=00
# t=195000 | running=1 | index=0 | done=0 | cartas_sel=00
# t=205000 | running=1 | index=1 | done=0 | cartas_sel=00
# t=215000 | running=1 | index=1 | done=0 | cartas_sel=00
# t=225000 | running=0 | index=1 | done=1 | cartas_sel=01
# 
# --- arr_out @ done (t=225000, index=1) ---
# 00000 00001 00100 00100 01000 01000 01100 01100 10000 10000 10100 10100 11000 11000 11100 11100 
# 
# 
# [START ronda 2]
# t=235000 | running=0 | index=1 | done=0 | cartas_sel=01
# t=245000 | running=1 | index=0 | done=0 | cartas_sel=00
# t=255000 | running=1 | index=0 | done=0 | cartas_sel=00
# t=265000 | running=1 | index=1 | done=0 | cartas_sel=00
# t=275000 | running=1 | index=1 | done=0 | cartas_sel=00
# t=285000 | running=1 | index=2 | done=0 | cartas_sel=00
# t=295000 | running=1 | index=2 | done=0 | cartas_sel=00
# t=305000 | running=1 | index=3 | done=0 | cartas_sel=00
# t=315000 | running=1 | index=3 | done=0 | cartas_sel=00
# t=325000 | running=0 | index=3 | done=1 | cartas_sel=01
# 
# --- arr_out @ done (t=325000, index=3) ---
# 00000 00000 00100 00101 01000 01000 01100 01100 10000 10000 10100 10100 11000 11000 11100 11100 
# 
# 
# ==== FIN TB ====
# t=335000 | running=0 | index=3 | done=0 | cartas_sel=01
# t=345000 | running=0 | index=3 | done=0 | cartas_sel=01
# t=355000 | running=0 | index=3 | done=0 | cartas_sel=01
# t=365000 | running=0 | index=3 | done=0 | cartas_sel=01
# t=375000 | running=0 | index=3 | done=0 | cartas_sel=01
# ** Note: $stop    : C:/Users/space/Desktop/Brayan/Taller_Digitales/Taller_3/Arr_Management_tb/tb_seleccionar_parejas.sv(116)
#    Time: 375 ns  Iteration: 1  Instance: /tb_seleccionar_parejas
# Break in Module tb_seleccionar_parejas at C:/Users/space/Desktop/Brayan/Taller_Digitales/Taller_3/Arr_Management_tb/tb_seleccionar_parejas.sv line 116
# End time: 02:38:10 on Oct 14,2025, Elapsed time: 0:00:55
# Errors: 0, Warnings: 0
